SEARCH_DIR(/lib64/)
SEARCH_DIR(/usr/X11R6/lib64/)
SEARCH_DIR(/usr/lib/eog/)
SEARCH_DIR(/usr/lib/libvte-2.90-9/)
SEARCH_DIR(/usr/lib/ConsoleKit/)
SEARCH_DIR(/usr/lib/fpc/)
SEARCH_DIR(/usr/lib/xneur/)
SEARCH_DIR(/usr/lib/gnome-settings-daemon-3.0/)
SEARCH_DIR(/usr/lib/php5/)
SEARCH_DIR(/usr/lib/signon/)
SEARCH_DIR(/usr/lib/torsocks/)
SEARCH_DIR(/usr/lib/debug/)
SEARCH_DIR(/usr/lib/ibus/)
SEARCH_DIR(/usr/lib/glib-networking/)
SEARCH_DIR(/usr/lib/qt4/)
SEARCH_DIR(/usr/lib/rtkit/)
SEARCH_DIR(/usr/lib/unity/)
SEARCH_DIR(/usr/lib/uhd/)
SEARCH_DIR(/usr/lib/lazarus/)
SEARCH_DIR(/usr/lib/tracker/)
SEARCH_DIR(/usr/lib/sudo/)
SEARCH_DIR(/usr/lib/cli/)
SEARCH_DIR(/usr/lib/blueman/)
SEARCH_DIR(/usr/lib/thunderbird-addons/)
SEARCH_DIR(/usr/lib/mono-source-libs/)
SEARCH_DIR(/usr/lib/udisks2/)
SEARCH_DIR(/usr/lib/cutter/)
SEARCH_DIR(/usr/lib/cups/)
SEARCH_DIR(/usr/lib/upstart/)
SEARCH_DIR("/usr/lib/2013.com.canonical.certification:plainbox-resources/")
SEARCH_DIR(/usr/lib/seahorse/)
SEARCH_DIR(/usr/lib/geoclue/)
SEARCH_DIR(/usr/lib/python2.7/)
SEARCH_DIR(/usr/lib/NetworkManager/)
SEARCH_DIR(/usr/lib/initramfs-tools/)
SEARCH_DIR(/usr/lib/gdm/)
SEARCH_DIR(/usr/lib/upower/)
SEARCH_DIR(/usr/lib/memtest86+/)
SEARCH_DIR(/usr/lib/libgda-5.0/)
SEARCH_DIR(/usr/lib/p7zip/)
SEARCH_DIR(/usr/lib/sm.bin/)
SEARCH_DIR(/usr/lib/gnome-sushi/)
SEARCH_DIR(/usr/lib/ghostscript/)
SEARCH_DIR(/usr/lib/pm-utils/)
SEARCH_DIR(/usr/lib/cgi-bin/)
SEARCH_DIR(/usr/lib/tracker-0.16/)
SEARCH_DIR(/usr/lib/libgksu/)
SEARCH_DIR(/usr/lib/bonobo/)
SEARCH_DIR(/usr/lib/dictd/)
SEARCH_DIR(/usr/lib/thunderbird/)
SEARCH_DIR(/usr/lib/kconf_update_bin/)
SEARCH_DIR(/usr/lib/GraphicsMagick-1.3.18/)
SEARCH_DIR(/usr/lib/msttcorefonts/)
SEARCH_DIR(/usr/lib/xorg/)
SEARCH_DIR("/usr/lib/2013.com.canonical.certification:checkbox/")
SEARCH_DIR(/usr/lib/X11/)
SEARCH_DIR(/usr/lib/gnupg/)
SEARCH_DIR(/usr/lib/ispell/)
SEARCH_DIR(/usr/lib/gnome-session/)
SEARCH_DIR(/usr/lib/libpeas-1.0/)
SEARCH_DIR(/usr/lib/dbus-1.0/)
SEARCH_DIR(/usr/lib/syslinux/)
SEARCH_DIR(/usr/lib/openssh/)
SEARCH_DIR(/usr/lib/gnome-color-manager/)
SEARCH_DIR(/usr/lib/gnome-shell/)
SEARCH_DIR(/usr/lib/firebird/)
SEARCH_DIR(/usr/lib/wx/)
SEARCH_DIR(/usr/lib/ettercap/)
SEARCH_DIR(/usr/lib/software-properties/)
SEARCH_DIR(/usr/lib/girepository-1.0/)
SEARCH_DIR(/usr/lib/sasl2/)
SEARCH_DIR(/usr/lib/brasero3-1/)
SEARCH_DIR(/usr/lib/xul-ext/)
SEARCH_DIR(/usr/lib/compizconfig/)
SEARCH_DIR(/usr/lib/tc/)
SEARCH_DIR(/usr/lib/x86_64-linux-gnu/)
SEARCH_DIR(/usr/lib/mc/)
SEARCH_DIR(/usr/lib/pulseaudio/)
SEARCH_DIR(/usr/lib/policykit-1/)
SEARCH_DIR(/usr/lib/mcabber/)
SEARCH_DIR(/usr/lib/lapack/)
SEARCH_DIR(/usr/lib/ure/)
SEARCH_DIR(/usr/lib/gnome-keyring/)
SEARCH_DIR(/usr/lib/avahi/)
SEARCH_DIR(/usr/lib/pppd/)
SEARCH_DIR(/usr/lib/rpm/)
SEARCH_DIR(/usr/lib/ecryptfs/)
SEARCH_DIR(/usr/lib/pcmciautils/)
SEARCH_DIR(/usr/lib/os-prober/)
SEARCH_DIR(/usr/lib/sushi/)
SEARCH_DIR(/usr/lib/git-core/)
SEARCH_DIR(/usr/lib/postgresql/)
SEARCH_DIR(/usr/lib/ntrack/)
SEARCH_DIR(/usr/lib/ubiquity/)
SEARCH_DIR(/usr/lib/checkbox-gui/)
SEARCH_DIR(/usr/lib/mission-control-plugins.0/)
SEARCH_DIR(/usr/lib/gcr/)
SEARCH_DIR(/usr/lib/syslinux-legacy/)
SEARCH_DIR(/usr/lib/gambas3/)
SEARCH_DIR(/usr/lib/odbc/)
SEARCH_DIR(/usr/lib/evolution-data-server/)
SEARCH_DIR(/usr/lib/grub-legacy/)
SEARCH_DIR(/usr/lib/ldscripts/)
SEARCH_DIR(/usr/lib/jvm/)
SEARCH_DIR(/usr/lib/policykit-1-gnome/)
SEARCH_DIR(/usr/lib/stardict/)
SEARCH_DIR(/usr/lib/graphviz/)
SEARCH_DIR(/usr/lib/opera/)
SEARCH_DIR(/usr/lib/firefox/)
SEARCH_DIR(/usr/lib/virtualbox/)
SEARCH_DIR(/usr/lib/libblas/)
SEARCH_DIR(/usr/lib/dconf/)
SEARCH_DIR(/usr/lib/timidity/)
SEARCH_DIR(/usr/lib/compat-ld/)
SEARCH_DIR(/usr/lib/pyshared/)
SEARCH_DIR(/usr/lib/at-spi2-core/)
SEARCH_DIR(/usr/lib/colord/)
SEARCH_DIR(/usr/lib/purple-2/)
SEARCH_DIR(/usr/lib/apt/)
SEARCH_DIR(/usr/lib/nvidia/)
SEARCH_DIR(/usr/lib/aspell/)
SEARCH_DIR(/usr/lib/guile-2.0/)
SEARCH_DIR(/usr/lib/unity-settings-daemon-1.0/)
SEARCH_DIR(/usr/lib/python3.4/)
SEARCH_DIR(/usr/lib/gnome-settings-daemon/)
SEARCH_DIR(/usr/lib/gnome-screensaver/)
SEARCH_DIR(/usr/lib/nautilus/)
SEARCH_DIR(/usr/lib/systemd/)
SEARCH_DIR(/usr/lib/empathy/)
SEARCH_DIR(/usr/lib/coreutils/)
SEARCH_DIR(/usr/lib/armory/)
SEARCH_DIR(/usr/lib/samba/)
SEARCH_DIR(/usr/lib/python-tz/)
SEARCH_DIR(/usr/lib/soprano/)
SEARCH_DIR(/usr/lib/pymodules/)
SEARCH_DIR(/usr/lib/midbrowser/)
SEARCH_DIR(/usr/lib/xvmcconfig-standard/)
SEARCH_DIR(/usr/lib/openvpn/)
SEARCH_DIR(/usr/lib/java-wrappers/)
SEARCH_DIR(/usr/lib/man-db/)
SEARCH_DIR(/usr/lib/xine/)
SEARCH_DIR(/usr/lib/file-roller/)
SEARCH_DIR(/usr/lib/gnome-user-share/)
SEARCH_DIR(/usr/lib/gnome-online-miners/)
SEARCH_DIR(/usr/lib/2GIS/)
SEARCH_DIR(/usr/lib/i386-linux-gnu/)
SEARCH_DIR(/usr/lib/ubuntu-sso-client/)
SEARCH_DIR(/usr/lib/perl/)
SEARCH_DIR(/usr/lib/shotwell/)
SEARCH_DIR(/usr/lib/totem/)
SEARCH_DIR(/usr/lib/gstreamer-0.10/)
SEARCH_DIR(/usr/lib/language-selector/)
SEARCH_DIR(/usr/lib/apg/)
SEARCH_DIR(/usr/lib/rhythmbox/)
SEARCH_DIR(/usr/lib/firefox-addons/)
SEARCH_DIR(/usr/lib/libaccount-plugin-1.0/)
SEARCH_DIR(/usr/lib/maxima/)
SEARCH_DIR(/usr/lib/nautilus-sendto/)
SEARCH_DIR(/usr/lib/extlinux/)
SEARCH_DIR(/usr/lib/evolution/)
SEARCH_DIR(/usr/lib/monodoc/)
SEARCH_DIR(/usr/lib/flashplugin-installer/)
SEARCH_DIR(/usr/lib/cmus/)
SEARCH_DIR(/usr/lib/rsyslog/)
SEARCH_DIR(/usr/lib/gcc/)
SEARCH_DIR(/usr/lib/compiz/)
SEARCH_DIR(/usr/lib/vino/)
SEARCH_DIR(/usr/lib/gnupg2/)
SEARCH_DIR(/usr/lib/gnome-bluetooth/)
SEARCH_DIR(/usr/lib/codeblocks/)
SEARCH_DIR(/usr/lib/lp_solve/)
SEARCH_DIR(/usr/lib/gvfs/)
SEARCH_DIR(/usr/lib/chromium-browser/)
SEARCH_DIR(/usr/lib/update-notifier/)
SEARCH_DIR(/usr/lib/python3/)
SEARCH_DIR(/usr/lib/vlc/)
SEARCH_DIR(/usr/lib/libvte9/)
SEARCH_DIR(/usr/lib/insserv/)
SEARCH_DIR(/usr/lib/gjs/)
SEARCH_DIR(/usr/lib/keepass2/)
SEARCH_DIR(/usr/lib/nux/)
SEARCH_DIR(/usr/lib/dkms/)
SEARCH_DIR(/usr/lib/gimp/)
SEARCH_DIR(/usr/lib/utempter/)
SEARCH_DIR(/usr/lib/tcltk/)
SEARCH_DIR(/usr/lib/linux-boot-probes/)
SEARCH_DIR(/usr/lib/binfmt-support/)
SEARCH_DIR(/usr/lib/gold-ld/)
SEARCH_DIR(/usr/lib/obexd/)
SEARCH_DIR(/usr/lib/pidgin/)
SEARCH_DIR(/usr/lib/speech-dispatcher-modules/)
SEARCH_DIR(/usr/lib/ubuntu-release-upgrader/)
SEARCH_DIR(/usr/lib/os-probes/)
SEARCH_DIR(/usr/lib/mutter/)
SEARCH_DIR(/usr/lib/valgrind/)
SEARCH_DIR(/usr/lib/remmina/)
SEARCH_DIR(/usr/lib/fglrx/)
SEARCH_DIR(/usr/lib/kde4/)
SEARCH_DIR(/usr/lib/pulse-4.0/)
SEARCH_DIR(/usr/lib/xulrunner/)
SEARCH_DIR(/usr/lib/eject/)
SEARCH_DIR(/usr/lib/pkgconfig/)
SEARCH_DIR(/usr/lib/libunity-webapps/)
SEARCH_DIR(/usr/lib/unity-settings-daemon/)
SEARCH_DIR(/usr/lib/ssl/)
SEARCH_DIR(/usr/lib/system-service/)
SEARCH_DIR(/usr/lib/guile/)
SEARCH_DIR(/usr/lib/iceape/)
SEARCH_DIR(/usr/lib/emacsen-common/)
SEARCH_DIR(/usr/lib/tmpfiles.d/)
SEARCH_DIR(/usr/lib/telepathy/)
SEARCH_DIR(/usr/lib/lightdm/)
SEARCH_DIR(/usr/lib/tar/)
SEARCH_DIR(/usr/lib/gnuplot/)
SEARCH_DIR(/usr/lib/mono/)
SEARCH_DIR(/usr/lib/gnu-smalltalk/)
SEARCH_DIR(/usr/lib/xulrunner-addons/)
SEARCH_DIR(/usr/lib/grub/)
SEARCH_DIR(/usr/lib/libgnome-desktop-3-7/)
SEARCH_DIR(/usr/lib/dpkg/)
SEARCH_DIR(/usr/lib/libreoffice/)
SEARCH_DIR(/usr/lib/sane/)
SEARCH_DIR(/usr/lib/gnome-online-accounts/)
SEARCH_DIR(/usr/lib/lcgdm/)
SEARCH_DIR(/usr/lib/apache2/)
SEARCH_DIR(/usr/lib/openmpi/)
SEARCH_DIR(/usr/lib/gettext/)
SEARCH_DIR(/usr/lib/gcc-cross/)
SEARCH_DIR(/usr/lib/indicators3/)
SEARCH_DIR(/usr/lib/strigi/)
SEARCH_DIR(/usr/lib/mozilla/)
SEARCH_DIR(/usr/lib/ruby/)
SEARCH_DIR(/usr/lib/gnome-contacts/)
SEARCH_DIR(/usr/lib/evince/)
SEARCH_DIR(/usr/lib/gstreamer-1.0/)
SEARCH_DIR(/usr/lib/locale/)
SEARCH_DIR(/usr/lib/aisleriot/)
SEARCH_DIR(/usr/lib/klibc/)
SEARCH_DIR(/usr/lib/perl5/)
SEARCH_DIR(/usr/lib/mime/)
SEARCH_DIR(/usr/lib/groff/)
SEARCH_DIR(/usr/lib/accountsservice/)
SEARCH_DIR(/usr/lib/iceweasel/)
SEARCH_DIR(/usr/lib/monodevelop/)
SEARCH_DIR(/usr/lib/gnome-system-monitor/)
SEARCH_DIR(/usr/lib/gcc/x86_64-linux-gnu/4.8/)
SEARCH_DIR(/usr/lib/fpc/2.6.2/units/x86_64-linux/rtl/)
SEARCH_DIR(/usr/lib/fpc/2.6.2/units/x86_64-linux/fcl-net/)
SEARCH_DIR(/usr/lib/fpc/2.6.2/units/x86_64-linux/fcl-image/)
SEARCH_DIR(/usr/lib/fpc/2.6.2/units/x86_64-linux/fcl-json/)
SEARCH_DIR(/usr/lib/fpc/2.6.2/units/x86_64-linux/x11/)
SEARCH_DIR(/usr/lib/fpc/2.6.2/units/x86_64-linux/fcl-fpcunit/)
SEARCH_DIR(/usr/lib/fpc/2.6.2/units/x86_64-linux/fpmkunit/)
SEARCH_DIR(/usr/lib/fpc/2.6.2/units/x86_64-linux/pasjpeg/)
SEARCH_DIR(/usr/lib/fpc/2.6.2/units/x86_64-linux/fcl-db/)
SEARCH_DIR(/usr/lib/fpc/2.6.2/units/x86_64-linux/fcl-base/)
SEARCH_DIR(/usr/lib/fpc/2.6.2/units/x86_64-linux/fcl-js/)
SEARCH_DIR(/usr/lib/fpc/2.6.2/units/x86_64-linux/uuid/)
SEARCH_DIR(/usr/lib/fpc/2.6.2/units/x86_64-linux/hash/)
SEARCH_DIR(/usr/lib/fpc/2.6.2/units/x86_64-linux/fcl-web/)
SEARCH_DIR(/usr/lib/fpc/2.6.2/units/x86_64-linux/fcl-xml/)
SEARCH_DIR(/usr/lib/fpc/2.6.2/units/x86_64-linux/fcl-res/)
SEARCH_DIR(/usr/lib/fpc/2.6.2/units/x86_64-linux/ncurses/)
SEARCH_DIR(/usr/lib/fpc/2.6.2/units/x86_64-linux/gtk2/)
SEARCH_DIR(/usr/lib/fpc/2.6.2/units/x86_64-linux/fcl-async/)
SEARCH_DIR(/usr/lib/fpc/2.6.2/units/x86_64-linux/fcl-process/)
SEARCH_DIR(/usr/lib/fpc/2.6.2/units/x86_64-linux/regexpr/)
SEARCH_DIR(/usr/lib/fpc/2.6.2/units/x86_64-linux/lexyacc/)
SEARCH_DIR(/usr/lib/fpc/2.6.2/units/x86_64-linux/fcl-registry/)
SEARCH_DIR(/usr/lib/fpc/2.6.2/units/x86_64-linux/fcl-extra/)
SEARCH_DIR(/usr/lib/fpc/2.6.2/units/x86_64-linux/paszlib/)
SEARCH_DIR(/usr/lib/fpc/2.6.2/units/x86_64-linux/fcl-passrc/)
SEARCH_DIR(/usr/lib/fpc/2.6.2/units/x86_64-linux/)
SEARCH_DIR(/usr/lib/fpc/2.6.2/)
VERSION
{
  {
    local:
      *;
  };
}
INPUT(
/usr/lib/fpc/2.6.2/units/x86_64-linux/rtl/dllprt0.o
fflib.o
/usr/lib/fpc/2.6.2/units/x86_64-linux/rtl/system.o
pasp13i.o
paspu61o.o
UEL4.o
INKWN3.o
kwn24.o
)
ENTRY(_start)
SECTIONS
{
  . = 0 +  SIZEOF_HEADERS;
  . = 0 +  SIZEOF_HEADERS;
  .interp         : { *(.interp) }
  .hash           : { *(.hash) }
  .dynsym         : { *(.dynsym) }
  .dynstr         : { *(.dynstr) }
  .gnu.version    : { *(.gnu.version) }
  .gnu.version_d  : { *(.gnu.version_d) }
  .gnu.version_r  : { *(.gnu.version_r) }
  .rel.dyn        :
    {
      *(.rel.init)
      *(.rel.text .rel.text.* .rel.gnu.linkonce.t.*)
      *(.rel.fini)
      *(.rel.rodata .rel.rodata.* .rel.gnu.linkonce.r.*)
      *(.rel.data.rel.ro*)
      *(.rel.data .rel.data.* .rel.gnu.linkonce.d.*)
      *(.rel.tdata .rel.tdata.* .rel.gnu.linkonce.td.*)
      *(.rel.tbss .rel.tbss.* .rel.gnu.linkonce.tb.*)
      *(.rel.got)
      *(.rel.bss .rel.bss.* .rel.gnu.linkonce.b.*)
    }
  .rela.dyn       :
    {
      *(.rela.init)
      *(.rela.text .rela.text.* .rela.gnu.linkonce.t.*)
      *(.rela.fini)
      *(.rela.rodata .rela.rodata.* .rela.gnu.linkonce.r.*)
      *(.rela.data .rela.data.* .rela.gnu.linkonce.d.*)
      *(.rela.tdata .rela.tdata.* .rela.gnu.linkonce.td.*)
      *(.rela.tbss .rela.tbss.* .rela.gnu.linkonce.tb.*)
      *(.rela.got)
      *(.rela.bss .rela.bss.* .rela.gnu.linkonce.b.*)
    }
  .rel.plt        : { *(.rel.plt) }
  .rela.plt       : { *(.rela.plt) }
  .init           :
  {
    KEEP (*(.init))
  } =0x90909090
  .plt            : { *(.plt) }
  .text           :
  {
    *(.text .stub .text.* .gnu.linkonce.t.*)
    KEEP (*(.text.*personality*))
    *(.gnu.warning)
  } =0x90909090
  .fini           :
  {
    KEEP (*(.fini))
  } =0x90909090
  PROVIDE (_etext = .);
  .rodata         :
  {
    *(.rodata .rodata.* .gnu.linkonce.r.*)
  }
  . = ALIGN (0x1000) - ((0x1000 - .) & (0x1000 - 1));
  .dynamic        : { *(.dynamic) }
  .got            : { *(.got .toc) }
  .got.plt        : { *(.got.plt .toc.plt) }
  .data           :
  {
    *(.data .data.* .gnu.linkonce.d.*)
    KEEP (*(.fpc .fpc.n_version .fpc.n_links))
    KEEP (*(.gnu.linkonce.d.*personality*))
  }
  PROVIDE (_edata = .);
  PROVIDE (edata = .);
  .threadvar : { *(.threadvar .threadvar.* .gnu.linkonce.tv.*) }
  __bss_start = .;
  .bss            :
  {
   *(.dynbss)
   *(.bss .bss.* .gnu.linkonce.b.*)
   *(COMMON)
   . = ALIGN(32 / 8);
  }
  . = ALIGN(32 / 8);
  PROVIDE (_end = .);
  PROVIDE (end = .);
  .stab          0 : { *(.stab) }
  .stabstr       0 : { *(.stabstr) }
  /* DWARF debug sections.
     Symbols in the DWARF debugging sections are relative to the beginning
     of the section so we begin them at 0.  */
  /* DWARF 1 */
  .debug          0 : { *(.debug) }
  .line           0 : { *(.line) }
  /* GNU DWARF 1 extensions */
  .debug_srcinfo  0 : { *(.debug_srcinfo) }
  .debug_sfnames  0 : { *(.debug_sfnames) }
  /* DWARF 1.1 and DWARF 2 */
  .debug_aranges  0 : { *(.debug_aranges) }
  .debug_pubnames 0 : { *(.debug_pubnames) }
  /* DWARF 2 */
  .debug_info     0 : { *(.debug_info .gnu.linkonce.wi.*) }
  .debug_abbrev   0 : { *(.debug_abbrev) }
  .debug_line     0 : { *(.debug_line) }
  .debug_frame    0 : { *(.debug_frame) }
  .debug_str      0 : { *(.debug_str) }
  .debug_loc      0 : { *(.debug_loc) }
  .debug_macinfo  0 : { *(.debug_macinfo) }
  /* SGI/MIPS DWARF 2 extensions */
  .debug_weaknames 0 : { *(.debug_weaknames) }
  .debug_funcnames 0 : { *(.debug_funcnames) }
  .debug_typenames 0 : { *(.debug_typenames) }
  .debug_varnames  0 : { *(.debug_varnames) }
  /DISCARD/ : { *(.note.GNU-stack) }
}
